Aufgaben Vorlesung 2
…
Informationen zum Datensatz

?Hitters

Dimension des Datensatzes 322 x 20

Hitters <- tibble(Hitters )
Hitters

## # A tibble: 322 × 20
##    AtBat  Hits HmRun  Runs   RBI Walks Years CAtBat CHits CHmRun CRuns  CRBI
##    <int> <int> <int> <int> <int> <int> <int>  <int> <int>  <int> <int> <int>
##  1   293    66     1    30    29    14     1    293    66      1    30    29
##  2   315    81     7    24    38    39    14   3449   835     69   321   414
##  3   479   130    18    66    72    76     3   1624   457     63   224   266
##  4   496   141    20    65    78    37    11   5628  1575    225   828   838
##  5   321    87    10    39    42    30     2    396   101     12    48    46
##  6   594   169     4    74    51    35    11   4408  1133     19   501   336
##  7   185    37     1    23     8    21     2    214    42      1    30     9
##  8   298    73     0    24    24     7     3    509   108      0    41    37
##  9   323    81     6    26    32     8     2    341    86      6    32    34
## 10   401    92    17    49    66    65    13   5206  1332    253   784   890
## # … with 312 more rows, and 8 more variables: CWalks <int>, League <fct>,
## #   Division <fct>, PutOuts <int>, Assists <int>, Errors <int>, Salary <dbl>,
## #   NewLeague <fct>
…
## Rows: 351353 Columns: 7
## ── Column specification ────────────────────────────────────────────────────────
## Delimiter: "\t"
## chr  (6): name.of.sensor, room.level, room.detail, message, sensor.type, cla...
## dttm (1): timestamp
## 
## ℹ Use `spec()` to retrieve the full column specification for this data.
## ℹ Specify the column types or set `show_col_types = FALSE` to quiet this message.

mydata

## # A tibble: 351,353 × 7
##    timestamp           name.of.sensor room.level room.…¹ message senso…² classes
##    <dttm>              <chr>          <chr>      <chr>   <chr>   <chr>   <chr>  
##  1 2011-06-15 00:09:20 M020           Bedroom    Bedroom ON      Contro… Other_…
##  2 2011-06-15 00:09:21 M020           Bedroom    Bedroom OFF     Contro… Other_…
##  3 2011-06-15 00:09:22 M020           Bedroom    Bedroom ON      Contro… Other_…
##  4 2011-06-15 00:09:24 M020           Bedroom    Bedroom OFF     Contro… Other_…
##  5 2011-06-15 00:09:33 LS020          Ignore     Ignore  0       Contro… Other_…
##  6 2011-06-15 00:09:33 M020           Bedroom    Bedroom ON      Contro… Other_…
##  7 2011-06-15 00:09:34 LS022          Ignore     Ignore  0       Contro… Other_…
##  8 2011-06-15 00:09:34 M022           Bedroom    Bed     ON      Contro… Other_…
##  9 2011-06-15 00:09:34 M020           Bedroom    Bedroom OFF     Contro… Other_…
## 10 2011-06-15 00:09:36 M022           Bedroom    Bed     OFF     Contro… Other_…
## # … with 351,343 more rows, and abbreviated variable names ¹​room.detail,
## #   ²​sensor.type
…
mydata.subset <- mydata.subset  %>%
  mutate(message = as.numeric(message)) %>%
  mutate(
    dinner = case_when(
    classes == "Cook_Breakfast" | classes == "Eat_Breakfast" ~ "Breakfast",
    classes == "Cook_Dinner" | classes == "Eat_Dinner" ~ "Dinner")) 
    
mydata.subset

## # A tibble: 1,367 × 3
##    message classes          dinner   
##      <dbl> <chr>            <chr>    
##  1      24 Sleep            <NA>     
##  2      23 Sleep            <NA>     
##  3      23 Sleep            <NA>     
##  4      24 Sleep            <NA>     
##  5      23 Sleep            <NA>     
##  6      24 Personal_Hygiene <NA>     
##  7      24 Eat_Breakfast    Breakfast
##  8      23 Other_Activity   <NA>     
##  9      23 Other_Activity   <NA>     
## 10      24 Other_Activity   <NA>     
## # … with 1,357 more rows
…
